{
	"kid": "242",
	"kty": "EC",
	"crv": "P-256",
	"x": "GR8OqDgFIyIyUbOiW2rgK1Q2M7D_2dV2ToOWKldR6Ac",
	"y": "Ddmiy5RynMQI5lXovhmBqAmYqjQJ-ehUl9b1GlmCWHQ",
	"d": "ofaSbabGhYLeJDq9A0-18M1OmjYQ_PNZpspADCo5WXg"
}