{
  "travelerCategoryTable" : {
    "metadata": {
      "serial": 1
    },
    "categories": {    
      "a": "Adult",
      "b": "Senior",
      "c": "Child",
			"d": "Dog",
			"e": "Student",
			"f": "Family",
			"g": "Bike"
    }
  }
}  
